<svg width="37" height="37" viewBox="0 0 37 37" fill="none" xmlns="http://www.w3.org/2000/svg">
<path d="M6.16675 18.5C6.16675 18.9089 6.32917 19.301 6.61829 19.5901C6.90741 19.8793 7.29954 20.0417 7.70841 20.0417H19.4097L15.8638 23.5721C15.7193 23.7154 15.6046 23.8859 15.5264 24.0738C15.4481 24.2617 15.4078 24.4632 15.4078 24.6667C15.4078 24.8702 15.4481 25.0717 15.5264 25.2596C15.6046 25.4474 15.7193 25.6179 15.8638 25.7613C16.0071 25.9058 16.1777 26.0205 16.3655 26.0987C16.5534 26.177 16.7549 26.2173 16.9584 26.2173C17.1619 26.2173 17.3634 26.177 17.5513 26.0987C17.7392 26.0205 17.9097 25.9058 18.053 25.7613L24.2197 19.5946C24.36 19.448 24.47 19.2751 24.5434 19.0858C24.6976 18.7105 24.6976 18.2895 24.5434 17.9142C24.47 17.7249 24.36 17.552 24.2197 17.4054L18.053 11.2388C17.9093 11.095 17.7386 10.981 17.5508 10.9032C17.363 10.8254 17.1617 10.7854 16.9584 10.7854C16.7551 10.7854 16.5538 10.8254 16.366 10.9032C16.1782 10.981 16.0076 11.095 15.8638 11.2388C15.7201 11.3825 15.6061 11.5532 15.5283 11.741C15.4505 11.9288 15.4104 12.1301 15.4104 12.3333C15.4104 12.5366 15.4505 12.7379 15.5283 12.9257C15.6061 13.1135 15.7201 13.2842 15.8638 13.4279L19.4097 16.9583H7.70841C7.29954 16.9583 6.90741 17.1208 6.61829 17.4099C6.32917 17.699 6.16675 18.0911 6.16675 18.5ZM26.2084 3.08334H10.7917C9.56512 3.08334 8.38874 3.57062 7.52138 4.43797C6.65402 5.30533 6.16675 6.48172 6.16675 7.70834V12.3333C6.16675 12.7422 6.32917 13.1343 6.61829 13.4235C6.90741 13.7126 7.29954 13.875 7.70841 13.875C8.11729 13.875 8.50942 13.7126 8.79854 13.4235C9.08766 13.1343 9.25008 12.7422 9.25008 12.3333V7.70834C9.25008 7.29947 9.41251 6.90734 9.70163 6.61822C9.99074 6.3291 10.3829 6.16668 10.7917 6.16668H26.2084C26.6173 6.16668 27.0094 6.3291 27.2985 6.61822C27.5877 6.90734 27.7501 7.29947 27.7501 7.70834V29.2917C27.7501 29.7006 27.5877 30.0927 27.2985 30.3818C27.0094 30.6709 26.6173 30.8333 26.2084 30.8333H10.7917C10.3829 30.8333 9.99074 30.6709 9.70163 30.3818C9.41251 30.0927 9.25008 29.7006 9.25008 29.2917V24.6667C9.25008 24.2578 9.08766 23.8657 8.79854 23.5766C8.50942 23.2874 8.11729 23.125 7.70841 23.125C7.29954 23.125 6.90741 23.2874 6.61829 23.5766C6.32917 23.8657 6.16675 24.2578 6.16675 24.6667V29.2917C6.16675 30.5183 6.65402 31.6947 7.52138 32.562C8.38874 33.4294 9.56512 33.9167 10.7917 33.9167H26.2084C27.435 33.9167 28.6114 33.4294 29.4788 32.562C30.3461 31.6947 30.8334 30.5183 30.8334 29.2917V7.70834C30.8334 6.48172 30.3461 5.30533 29.4788 4.43797C28.6114 3.57062 27.435 3.08334 26.2084 3.08334Z" fill="#CE7C2A"/>
</svg>
